<?xml version="1.0" encoding="UTF-8" standalone="no"?>
<svg
   id="Layer_1"
   data-name="Layer 1"
   viewBox="0 0 299.80002 457.97995"
   version="1.1"
   sodipodi:docname="logo-white.svg"
   width="299.80002"
   height="457.97995"
   inkscape:version="1.1.1 (c3084ef, 2021-09-22)"
   inkscape:export-filename="/Users/ahmed/Downloads/logo-02.png"
   inkscape:export-xdpi="64.7314"
   inkscape:export-ydpi="64.7314"
   xmlns:inkscape="http://www.inkscape.org/namespaces/inkscape"
   xmlns:sodipodi="http://sodipodi.sourceforge.net/DTD/sodipodi-0.dtd"
   xmlns:xlink="http://www.w3.org/1999/xlink"
   xmlns="http://www.w3.org/2000/svg"
   xmlns:svg="http://www.w3.org/2000/svg">
  <sodipodi:namedview
     id="namedview159"
     pagecolor="#ffffff"
     bordercolor="#666666"
     borderopacity="1.0"
     inkscape:pageshadow="2"
     inkscape:pageopacity="0.0"
     inkscape:pagecheckerboard="0"
     showgrid="false"
     inkscape:zoom="0.38745523"
     inkscape:cx="-298.09895"
     inkscape:cy="344.55593"
     inkscape:window-width="1280"
     inkscape:window-height="713"
     inkscape:window-x="0"
     inkscape:window-y="23"
     inkscape:window-maximized="0"
     inkscape:current-layer="Layer_1" />
  <defs
     id="defs26">
    <style
       id="style2">.cls-1{fill:url(#linear-gradient);}.cls-2{fill:url(#linear-gradient-2);}.cls-3{fill:url(#linear-gradient-3);}.cls-4{fill:url(#linear-gradient-4);}.cls-5{fill:url(#linear-gradient-5);}.cls-6{fill:#03cbf0;}.cls-7{fill:url(#linear-gradient-6);}.cls-8{fill:#0038b1;}.cls-9{font-size:34.5px;fill:#fff;font-family:MyriadPro-Regular, Myriad Pro;}</style>
    <linearGradient
       id="linear-gradient"
       x1="1579.6899"
       y1="345.73001"
       x2="1608.53"
       y2="345.73001"
       gradientUnits="userSpaceOnUse"
       gradientTransform="translate(-1307.94,-266.18034)">
      <stop
         offset="0"
         stop-color="#0052bc"
         id="stop4" />
      <stop
         offset="0.93"
         stop-color="#003ab2"
         id="stop6" />
      <stop
         offset="1"
         stop-color="#0038b1"
         id="stop8" />
    </linearGradient>
    <linearGradient
       id="linear-gradient-2"
       x1="1307.9399"
       y1="640.51001"
       x2="1606.08"
       y2="640.51001"
       gradientUnits="userSpaceOnUse">
      <stop
         offset="0"
         stop-color="#003fb4"
         id="stop11" />
      <stop
         offset="0.51"
         stop-color="#00cbf0"
         id="stop13" />
      <stop
         offset="0.61"
         stop-color="#00b3e6"
         id="stop15" />
      <stop
         offset="0.81"
         stop-color="#0076cb"
         id="stop17" />
      <stop
         offset="1"
         stop-color="#0038b1"
         id="stop19" />
    </linearGradient>
    <linearGradient
       id="linear-gradient-3"
       x1="1471.41"
       y1="318.13"
       x2="1595.04"
       y2="385.75"
       xlink:href="#linear-gradient-2"
       gradientTransform="translate(-1307.94,-266.18034)" />
    <linearGradient
       id="linear-gradient-4"
       x1="1304.85"
       y1="509.89999"
       x2="1471.48"
       y2="237.28"
       xlink:href="#linear-gradient-2"
       gradientTransform="translate(-1307.94,-266.18034)" />
    <linearGradient
       id="linear-gradient-5"
       x1="1254.88"
       y1="416.72"
       x2="1660.77"
       y2="416.72"
       xlink:href="#linear-gradient-2"
       gradientTransform="translate(-1307.94,-266.18034)" />
    <linearGradient
       id="linear-gradient-6"
       x1="754.28998"
       y1="1017.03"
       x2="1140.02"
       y2="1017.03"
       xlink:href="#linear-gradient-2"
       gradientTransform="translate(-1307.94,-266.18034)" />
  </defs>
  <path
     class="cls-1"
     d="m 300.59002,42.069665 v 74.999995 a 19.09,19.09 0 0 0 -0.81,-5.34 c -3,-10.13 -13.64,-22.289995 -28,-34.869995 v -34.79 z"
     id="path28"
     style="fill:#ffffff" />
  <path
     class="cls-2"
     d="m 297.12002,291.52966 a 66,66 0 0 1 -30.75,21.21 0.18,0.18 0 0 1 -0.14,0.06 117.21,117.21 0 0 1 -234.310001,-0.26 66.53,66.53 0 0 1 -30.7800001,-21.88 148.8,148.8 0 0 0 19.2700001,93.6 149,149 0 0 0 126.160001,73.72 v 0 c 0.82,0 1.66,0 2.48,0 a 142.68,142.68 0 0 0 16.37,-0.91 l 0.89,-0.09 a 149.08,149.08 0 0 0 131.65,-140.69 c 0,-1.15 0.09,-2.32 0.13,-3.49 0,-1 0,-2 0,-2.94 v -1.39 a 147.89,147.89 0 0 0 -0.97,-16.94 z"
     id="path30"
     style="fill:#ffffff" />
  <path
     class="cls-3"
     d="m 300.59002,117.02966 v 57.5 l -27.23,-27.23 v -23.4 c 0,-23 -67,-65.589995 -103,-86.759995 l -4.39,-21.32 -0.94,-4.61 c -0.08,-0.33 -0.16,-0.71 -0.23,-1.06 a 12.3,12.3 0 0 0 -5.12,-7.84 c 7.81,4.41 21.68,12.2 31.36,18.07 18.09,10.95 39.7,24.77 59,39.05 q 4.62,3.45 9,6.91 c 4.15,3.26 8.14,6.54 11.89,9.78 l 0.82,0.71 c 14.39,12.58 25.07,24.739995 28,34.869995 a 19.09,19.09 0 0 1 0.84,5.33 z"
     id="path32"
     style="fill:#ffffff" />
  <path
     class="cls-4"
     d="m 142.26002,3.669665 c -1.53,2 -2.44,4.51 -3.49,8.06 l -6.12,25.28 c -2,1.24 -4,2.48 -4.24,2.63 -36.770001,21.83 -100.350001,62.899995 -100.350001,85.249995 v 101.18 c 0,7.36 2,22 9.11,31.24 v 0 a 29.43,29.43 0 0 0 4,4.22 28,28 0 0 0 17.15,7.11 c -25.84,-0.31 -48,-18.73 -57.49000014,-44.93 v -105.68 c 0,-8.93 7.73000004,-19.999995 19.66000014,-31.729995 12.22,-12 28.85,-24.81 46.12,-36.76 17.27,-11.95 35.220001,-23.11 50.000001,-32 2.17,-1.23 17,-9.21 25.65,-13.87 z"
     id="path34"
     style="fill:#ffffff" />
  <path
     class="cls-5"
     d="m 296.06002,210.15966 -23.59,-23.6 -10.41,-10.53 -0.13,-0.13 v 32.69 a 12.49,12.49 0 0 0 3.37,8.54 c 4,4.31 6.75,7.58 7.25,8.94 1,2.73 0.8,6.11 0,9.63 l -0.8,3 c -1,3.39 -2.42,6.8 -3.66,9.75 v 0.05 a 31.48,31.48 0 0 1 -3.86,7.58 29.79,29.79 0 0 1 -5.5,6 c -0.21,0.2 -0.42,0.34 -0.63,0.52 a 28.2,28.2 0 0 1 -13.9,5.9 29.6,29.6 0 0 1 -3.66,0.23 21.37,21.37 0 0 1 -17.27,-8.08 c -4.42,-5.14 -8.44,-13.29 -11.77,-26.06 l -6.79,-32.7 -3.23,-15.46 -4.66,-22.38 -1.5,-7.35 -2.32,-11.13 -10.13,-48.669995 -9.49,-45.73 -2.64,-12.6 -0.29,-1.4 -4.48,-21.35 -0.94,-4.61 c -0.08,-0.33 -0.16,-0.71 -0.23,-1.06 a 12.3,12.3 0 0 0 -5.12,-7.84 c -0.83,-0.48 -1.58,-0.9 -2.25,-1.27 v 0 a 0.15,0.15 0 0 0 -0.12,0 12.45,12.45 0 0 0 -10.83,0.42 c -1.26,0.67 -2.68,1.43 -4.18,2.25 0,0 0,0 0,0 -1.53,2 -2.44,4.51 -3.49,8.06 l -6.12,25.28 -5.43,22.35 -10.27,46.219995 -0.24,1.07 -9.09,41.13 -1.84,8.33 -1.61,7.4 -5.000001,23 -3.28,14.84 -7,32.05 c -0.62,3.06 -3.4,17.09 -11.37,26.51 -4,4.6 -9.13,8.15 -15.91,8.71 -0.52,0 -1.06,0.06 -1.61,0.06 -0.31,0 -0.62,0 -1,0 a 1.71,1.71 0 0 1 -0.32,0 h -0.39 c -25.84,-0.31 -48,-18.73 -57.49000014,-44.93 v 18 a 70.84,70.84 0 0 0 4.86000004,25.85 2.44,2.44 0 0 1 0.1,0.24 v 0 a 63.36,63.36 0 0 0 27.3500001,26.94 59.47,59.47 0 0 0 26.81,6.36 58.79,58.79 0 0 0 14.37,-1.76 60.55,60.55 0 0 0 10.91,-3.83 62.66,62.66 0 0 0 16.490001,-11.29 c 5.26,-5 10,-10.83 13,-17.64 0.83,-1.87 6.85,-23.89 6.85,-23.89 l 14.19,-53.64 7.29,-27.31 a 9.11,9.11 0 0 1 0.88,-2.2 c 0,0 0,-0.05 0.07,-0.05 a 8,8 0 0 1 3.21,-3.14 9,9 0 0 1 8.57,0.1 9.21,9.21 0 0 1 2.33,2 8.53,8.53 0 0 1 1.61,3.34 l 7,27.57 11.66,46.06 8.2,32.42 c 0,0 0.76,1.74 1,2.21 a 64.08,64.08 0 0 0 11.15,14.09 61.83,61.83 0 0 0 26.13,14.83 60.55,60.55 0 0 0 15.62,2.05 58.69,58.69 0 0 0 17.56,-2.64 59.46,59.46 0 0 0 8.46,-3.33 7.47,7.47 0 0 0 0.75,-0.37 63.14,63.14 0 0 0 27,-26.14 c 0.2,-0.36 0.41,-0.7 0.59,-1.08 a 11.41,11.41 0 0 0 0.75,-1.64 71,71 0 0 0 3.24,-12.44 c 0.12,-0.59 0.21,-1.22 0.3,-1.84 a 76.83,76.83 0 0 0 0.66,-9.91 v -22.7 a 12.49,12.49 0 0 0 -3.74,-8.85 z m -20.85,30 h -0.81 c 0.31,-1 0.58,-2.05 0.81,-3.06 z"
     id="path36"
     style="fill:#ffffff" />
</svg>
